<?xml version="1.0" standalone="yes"?>
<svg xmlns="http://www.w3.org/2000/svg" width="1024" height="1024">
<path style="fill:#6d6d6d; stroke:none;" d="M437 173C424.396 176.708 411.875 186.754 401 194C373.95 212.024 348.013 231.987 325 255C264.427 315.573 221.714 391.798 208.439 477C204.268 503.77 205.781 532.067 206.961 559C209.258 611.453 215.301 664.192 229.424 715C236.848 741.708 245.731 767.785 257.309 793C263.268 805.978 272.987 817.755 278 831C261.135 831.14 242.908 836.031 227 841.333C218.351 844.216 209.689 847.383 203.174 854.093C185.735 872.054 179.585 901.166 175.586 925C173.119 939.708 170.982 955.082 171 970C171.009 977.415 172.383 984.545 180.004 987.772C184.847 989.822 190.861 989 196 989L225 989L329 989L689 989L806 989L833 989C838.717 988.998 844.32 988.999 848.66 984.66C852.994 980.325 853.007 974.714 853 969C852.984 956.143 851.306 942.697 849.246 930C845.126 904.602 839.479 873.304 820.826 854.093C814.311 847.383 805.649 844.216 797 841.333C781.092 836.031 762.865 831.14 746 831C749.97 820.512 757.576 811.008 762.742 801C772.432 782.224 780.229 762.115 786.656 742C805.618 682.65 814.325 620.993 817.039 559C818.213 532.195 819.181 504.703 815.711 478C808.77 424.588 786.978 370.688 757.333 326C735.896 293.686 710.705 265.109 682 239.075C672.967 230.882 659.142 214.742 646 215.055C635.226 215.311 630.992 224.672 626.637 233C616.258 252.85 608.076 273.772 601 295C580.878 355.366 569.597 418.832 562.834 482C559.537 512.795 555.639 544.044 555 575L467 575C467 472.738 469.834 366.681 513.309 272C522.145 252.756 533.831 234.219 547.438 218C552.653 211.785 558.059 205.624 564 200.089C568.053 196.314 572.893 193.106 576.446 188.83C598.552 162.229 608.193 126.343 596.656 93C593.362 83.4799 588.494 74.8652 582.192 67C546.217 22.1014 473.213 24.496 439.746 71C424.654 91.9722 419.591 120.898 425.895 146C428.338 155.726 433.089 163.923 437 173z"/>
<path style="fill:#ffffff; stroke:none;" d="M461 177C436.271 187.35 412.692 204.316 391 219.86C303.917 282.259 240.088 374.137 223.439 481C219.665 505.223 220.894 530.639 221.961 555C223.46 589.246 226.474 623.173 232.576 657C240.36 700.159 252.07 741.763 269.576 782C274.245 792.732 279.973 802.976 286 813C288.632 817.377 291.342 823.224 295.465 826.397C300.241 830.072 311.396 826.947 317 826.286C333.981 824.282 351.913 823.207 369 823.004C393.973 822.707 419.048 821.121 444 821.001C477.417 820.84 510.621 822.501 544 821.039C556.847 820.477 570.153 820.477 583 821.039C590.246 821.357 597.814 823.251 605 821.211C620.506 816.81 635.459 805.909 646.996 795.089C671.009 772.568 686.238 743.45 697.808 713C713.94 670.542 720.673 623.965 725.169 579C732.331 507.377 734.061 435.793 718.424 365C710.289 328.167 696.115 291.659 673.848 261C666.419 250.771 656.812 236.265 645 231C636.441 251.553 625.691 270.837 618.344 292C596.674 354.421 584.854 420.431 577.834 486C574.145 520.458 570 555.33 570 590L486 590L463 590C459.533 590 455.219 590.638 452.039 588.972C445.605 585.602 441.539 576.007 438.011 570C427.527 552.152 419.53 533.313 412.192 514C398.977 479.22 392 441.144 392 404C392 389.005 392.332 372.535 396.428 358C400.995 341.794 410.261 326.508 418.579 312C434.352 284.486 452.295 257.855 472.003 233C483.939 217.946 496.411 202.381 512 190.924C520.925 184.365 531.832 184.387 541 178.452C558.834 166.908 572.279 145.835 578.996 126C581.639 118.196 584.116 109.299 582.671 101C581.23 92.7186 576.066 84.5121 570.985 78C552.179 53.8984 519.177 43.7911 490 53.0286C452.501 64.9011 431.05 105.15 441.155 143C444.652 156.099 451.68 167.26 461 177z"/>
<path style="fill:#1f1f1f; stroke:none;" d="M580 93L581 94L580 93M581 95L582 96L581 95M582 97L582 100C582.696 98.4464 582.696 98.5536 582 97z"/>
<path style="fill:#b3b3b3; stroke:none;" d="M583 100C583 129.208 565.483 159.978 542 177.073C533.902 182.968 524.431 182.962 516 187.68C503.842 194.482 494.301 205.751 485.166 216C459.922 244.321 437.935 277.095 419.15 310C410.529 325.103 400.609 341.039 396.156 358C392.306 372.664 392 388.937 392 404C392 442.004 399.15 480.397 412.576 516C419.328 533.902 426.798 551.357 436.281 568C440.637 575.645 444.918 584.568 452 590C452 575.372 450.664 560.539 451.015 546C453.084 460.188 458.944 373.225 489.576 292C504.985 251.143 528.196 204.621 565 179C566.693 172.96 573.565 168.636 576.688 163C584.299 149.263 587.025 134.542 587 119C586.99 112.771 586.713 105.211 583 100M646 229C647.991 233.181 651.496 235.648 654.576 239.039C661.313 246.46 667.95 253.879 673.848 262C689.477 283.52 700.876 307.852 709.333 333C728.08 388.748 732.592 449.697 730.039 508C727.259 571.494 720.804 634.644 703.141 696C692.598 732.624 674.082 768.939 645.999 795.089C634.252 806.028 619.664 816.487 604 821C611.949 824.336 623.431 821.503 632 822.089C654.873 823.656 678.087 825.314 701 825.986C706.957 826.161 713.089 826.648 719 827.424C722.748 827.917 727.404 828.874 730.674 826.397C734.186 823.737 736.557 818.706 738.796 815C744.657 805.3 749.535 795.293 754.231 785C772.664 744.594 784.485 699.71 791.919 656C799.763 609.88 806.014 562.889 803.961 516C801.602 462.135 787.362 408.461 761.691 361C747.375 334.532 729.165 310.397 709.166 288C696.885 274.247 683.651 261.307 670 248.925C662.384 242.017 654.741 234.467 646 229z"/>
<path style="fill:#ffffff; stroke:none;" d="M453.333 478.667C453.278 478.722 453.222 479.778 453.667 479.333C453.722 479.278 453.778 478.222 453.333 478.667M452 497L452 506C453.256 503.006 453.256 499.994 452 497M451 540L451 556C452.812 551.681 452.812 544.319 451 540M186 974L838 974C837.982 946.991 833.377 917.482 824.308 892C820.717 881.911 815.794 869.413 806.961 862.789C795.858 854.463 779.283 852.053 766 849.4C732.656 842.74 697.906 839.816 664 838.985C635.379 838.284 606.649 836.345 578 836.004C548.311 835.651 518.721 837.143 489 836.999C440.293 836.764 391.65 836.579 343 839.911C314.215 841.882 285.397 843.922 257 849.6C244.219 852.156 228.987 854.627 218.015 862.105C208.793 868.39 203.763 880.881 200.053 891C190.64 916.673 186.018 946.708 186 974z"/>
</svg>
