<?xml version="1.0" standalone="yes"?>
<svg xmlns="http://www.w3.org/2000/svg" width="1024" height="1024">
<path style="fill:#6d6d6d; stroke:none;" d="M342 495C330.515 479.924 316.791 466.139 304.166 452C284.921 430.446 266.078 408.552 246.834 387C236.752 375.709 226.654 364.419 216.718 353C212.6 348.266 206.854 343.477 203.785 338C200.685 332.467 206.476 322.193 206.91 316C207.906 301.803 206.038 287.231 198.304 275C184.035 252.431 158.58 240.287 132 244.439C123.922 245.701 115.932 248.313 109 252.696C98.6979 259.21 89.9292 268.05 84.3735 279C69.5293 308.256 79.9731 345.089 107 362.996C113.957 367.606 121.699 370.881 130 372C130.417 381.688 133.301 391.504 135.2 401C138.464 417.323 141.536 433.677 144.8 450C154.664 499.323 164.337 548.677 174.2 598C185.26 653.307 195.94 708.693 207 764L217.4 816C219.186 824.935 220.074 834.359 223 843C208.149 846.527 198.419 857.868 191.756 871C180.04 894.09 175.564 920.504 172.834 946C171.706 956.54 166.991 974.924 174.558 983.812C180.494 990.784 190.844 989 199 989L261 989L660 989L784 989L822 989C828.346 989 835.824 990.065 842 988.442C858.924 983.995 852.5 958.459 851.166 946C848.436 920.504 843.959 894.09 832.244 871C825.581 857.868 815.851 846.527 801 843C803.715 834.982 804.552 826.289 806.2 818L815.6 771C825.53 721.36 835.228 671.67 845.001 622C855.696 567.645 866.533 513.32 877.4 459C880.998 441.01 884.403 422.988 888 405C890.104 394.477 893.148 383.701 894 373C902.655 372.293 910.815 368.757 918 363.996C955.216 339.338 957.369 282.188 920 256.348C914.406 252.48 908.545 249.377 902 247.439C876.917 240.014 849.135 247.83 832.326 268C821.098 281.472 817.801 296.923 818.004 314C818.092 321.451 824.248 332.686 819.613 339C811.282 350.35 800.568 360.412 791.285 371C767.838 397.741 744.162 424.258 720.715 451C712.798 460.03 704.833 469.041 696.834 478C692.103 483.299 686.013 488.537 683 495C678.665 481.293 680.885 465.226 679.911 451C677.585 417.044 677.236 382.955 674.911 349C673.956 335.064 674.153 320.897 672.83 307C672.193 300.308 672.369 293.693 671.911 287C671.712 284.097 670.644 280.937 671.333 278.04C672.313 273.917 676.806 271.867 680 269.652C684.716 266.382 688.998 262.412 692.674 258C706.714 241.154 710.916 216.844 704.254 196C692.433 159.018 648.631 141.499 614 157.89C602.257 163.449 592.762 173.006 586.068 184C576.485 199.739 575.194 221.818 581.436 239C583.411 244.438 586.103 249.225 589.346 254C591.489 257.154 594.133 259.961 593.118 264C591.89 268.891 588.9 273.425 586.861 278C581.938 289.047 576.943 300.063 571.781 311C558.188 339.796 545.101 368.915 532.139 398C525.868 412.07 517.267 426.182 513 441L511 441C506.733 426.182 498.132 412.07 491.861 398C478.899 368.915 465.812 339.796 452.219 311C447.057 300.063 442.062 289.047 437.139 278C434.979 273.153 431.638 268.219 430.471 263C429.581 259.014 432.557 256.068 434.653 253C437.907 248.235 440.59 243.434 442.564 238C448.673 221.184 447.563 199.6 438.535 184C432.061 172.813 422.588 163.253 411 157.373C379.642 141.463 339.252 154.706 323.373 186C312.162 208.096 315.288 236.671 330.518 256C334.326 260.833 338.951 265.15 344 268.652C347.565 271.124 352.197 273.253 352.837 278.015C353.238 280.993 352.292 284.039 352.09 287C351.611 293.992 351.568 301.006 351.09 308C350.155 321.649 350.024 335.351 349.09 349C347.404 373.611 347.04 398.354 345.961 423C344.911 446.974 342.495 471.008 342 495z"/>
<path style="fill:#b2b2b2; stroke:none;" d="M380 165C381.506 165.683 382.315 165.826 384 166C382.494 165.317 381.685 165.174 380 165z"/>
<path style="fill:#ffffff; stroke:none;" d="M369 263C365.249 310.525 364.047 358.366 361.961 406C360.109 448.274 356 490.65 356 533C344.885 524.5 336.149 511.432 326.834 501C307.543 479.394 288.457 457.606 269.166 436C261.3 427.19 254.058 417.458 245.424 409.376C239.877 404.183 233.08 400.166 227 395.626C213.391 385.463 199.634 375.499 186 365.37C178.443 359.757 168.745 354.49 163 347C172.048 342.267 175.074 332.522 176.561 323C179.305 305.428 173.362 282.868 160.96 270.004C154.785 263.599 146.283 258.326 137 259.304C130.453 259.994 123.688 262.164 118 265.464C112.088 268.896 106.843 273.512 102.761 279C78.5615 311.534 103.156 357.67 143 358C143.6 371.931 148.067 386.334 150.8 400C155.797 424.987 160.602 450.011 165.6 475C182.195 557.956 198.78 640.933 214.803 724C219.567 748.698 224.666 773.336 229.6 798C232.225 811.123 235.938 824.658 237 838C251.397 836.061 265.544 832.182 280 830.282C308.828 826.491 338.001 824.309 367 823.039C403.564 821.438 440.376 820.824 477 821.001C499.383 821.109 521.583 822.021 544 821.039C570.65 819.872 597.343 822 624 822C633.262 822 646.307 825.812 655 821.86C664.987 817.32 674.061 807.446 682 800.089C707.136 776.794 726.907 748.192 738.95 716C768.698 636.481 796.222 555.992 824.692 476C833.835 450.311 842.875 424.54 852.424 399C857.736 384.795 865.755 368.991 868 354C872.948 354 878.112 354.417 883 353.535C897.292 350.958 908.342 340.749 914.627 328C922.827 311.365 923.607 285.06 909.907 271.044C906.461 267.519 902.417 265.86 898.039 263.826C894.381 262.125 891.074 260.586 886.999 260.171C857.771 257.186 832.351 282.07 833.015 311C833.164 317.488 834.837 324.073 837.44 330C838.916 333.36 841.876 336.614 839.459 340.17C836.08 345.141 831.171 349.515 827.166 354L804.166 380C783.427 403.227 762.812 426.588 742.285 450C727.028 467.401 711.541 484.6 696.285 502C687.374 512.163 678.74 524.787 668 533C668 442.805 654.299 353.405 643 264C674.915 259.878 683.358 225.181 676.37 198C672.657 183.553 664.808 169.928 649 167.439C628.378 164.192 606.727 176.281 597.89 195C588.809 214.237 592.563 246.003 614 256C593.201 306.697 568.556 356.197 545.691 406L523.691 454C519.954 462.163 515.375 470.318 513 479L511 479C506.397 462.17 496.565 445.847 489.309 430C482.478 415.083 476.47 399.445 468.691 385C459.366 367.686 447.337 351.527 436.692 335C420.812 310.345 405.391 285.317 389 261C400.382 258.946 406.996 248.504 409.841 238C414.643 220.275 411.958 197.873 402.546 182C397.72 173.86 390.961 166.71 381 166.094C375.357 165.745 369.253 167.268 364 169.229C327.352 182.911 321.283 233.554 353 255.957C357.83 259.368 363.16 261.994 369 263z"/>
<path style="fill:#b4b4b4; stroke:none;" d="M384 166C406.182 178.728 415.277 206.09 411.079 231C408.896 243.956 402.466 257.038 389 261C395.329 274.382 405.024 286.515 412.947 299C429.731 325.449 446.481 352.031 464 378C464.718 373.899 462.001 369.671 460.255 366C456.966 359.083 453.958 352.006 450.86 345C442.441 325.958 433.862 306.981 425.306 288C420.359 277.027 416.07 265.402 410 255C416.735 251.859 421.504 245.347 425.127 239C442.401 208.742 419.939 166.301 384 166z"/>
<path style="fill:#b2b2b2; stroke:none;" d="M652 167L653 168L652 167M655.667 168.333C655.222 168.778 656.278 168.722 656.333 168.667C656.778 168.222 655.722 168.278 655.667 168.333M657.667 169.333C657.222 169.778 658.278 169.722 658.333 169.667C658.778 169.222 657.722 169.278 657.667 169.333z"/>
<path style="fill:#b4b4b4; stroke:none;" d="M659 170C663.801 175.555 668.896 180.21 672.11 187C682.693 209.36 681.867 243.699 659 258.451C654.053 261.643 648.694 262.895 643 264C645.979 301.74 652.654 339.405 657.155 377C658.813 390.846 661.885 405.049 662 419C664.424 413.223 663.005 405.095 662.286 399C661.442 391.853 661.354 384.196 661.039 377C660.048 354.35 659.459 331.619 657.911 309C657.013 295.901 654.235 281.133 655.894 268.043C656.646 262.106 667.647 259.477 672 256.239C682.305 248.575 691.637 236.328 691.985 223C692.531 202.112 682.534 174.538 659 170M140 258C143.294 260.292 147.433 260.859 151 262.8C155.581 265.293 159.401 269.1 162.815 273C179.173 291.685 184.555 330.438 163 347C166.941 354.761 178.092 360.239 185 365.37C196.961 374.255 209.078 382.936 221 391.873C227.908 397.053 235.026 403.629 243 407C231.316 389.913 215.527 374.548 201.845 359C196.729 353.186 187.873 346.172 184.877 339C183.41 335.486 186.704 331.977 188.19 329C190.941 323.487 192.698 317.168 192.961 311C194.234 281.081 168.852 258.239 140 258z"/>
<path style="fill:#b2b2b2; stroke:none;" d="M133 259L134 260L133 259z"/>
<path style="fill:#b4b4b4; stroke:none;" d="M894 262C902.156 267.48 909.932 269.661 915.095 279C927.043 300.614 918.301 333.378 898 346.895C888.522 353.206 879.016 354 868 354C865.27 365.518 860.121 376.879 856.053 388C848.508 408.631 841.058 429.305 833.692 450C810.182 516.056 786.202 581.944 762.692 648C752.99 675.262 744.773 703.684 732.691 730C716.17 765.986 687.815 800.942 654 822C660.332 824.682 668.234 823.849 675 824.015C684.961 824.259 695.049 825.404 705 826.089C732.773 828.002 759.554 834.304 787 838C788.143 823.634 792.467 809.15 795.197 795C800.729 766.322 806.273 737.64 812 709C828.26 627.69 844.135 546.307 860.4 465C864.932 442.344 869.27 419.655 873.8 397C876.295 384.523 879.99 371.685 881 359C899.726 358.948 919.002 349.62 927.099 332C939.154 305.765 926.317 265.239 894 262z"/>
<path style="fill:#ffffff; stroke:none;" d="M931 303L932 304L931 303z"/>
<path style="fill:#b4b4b4; stroke:none;" d="M465.333 378.667C465.278 378.722 465.222 379.778 465.667 379.333C465.722 379.278 465.778 378.222 465.333 378.667M466.333 380.667C466.278 380.722 466.222 381.778 466.667 381.333C466.722 381.278 466.778 380.222 466.333 380.667M243 407L244 408L243 407z"/>
<path style="fill:#b2b2b2; stroke:none;" d="M663 420L663 427C664.059 424.466 664.06 422.534 663 420z"/>
<path style="fill:#ffffff; stroke:none;" d="M809 721L810 722L809 721M808 726L809 727L808 726M807 731L808 732L807 731M186 974L838 974C837.982 946.991 833.377 917.482 824.308 892C820.717 881.911 815.794 869.413 806.961 862.789C795.858 854.463 779.283 852.053 766 849.4C732.656 842.74 697.906 839.816 664 838.985C635.379 838.284 606.649 836.345 578 836.004C548.311 835.651 518.721 837.143 489 836.999C440.293 836.764 391.65 836.579 343 839.911C314.215 841.882 285.397 843.922 257 849.6C244.219 852.156 228.987 854.627 218.015 862.105C208.793 868.39 203.763 880.881 200.053 891C190.64 916.673 186.018 946.708 186 974z"/>
</svg>
